{
    "prepare_queue": {
        "installed": [],
        "uninstalled": []
    },
    "config_munge": {
        "files": {
            "res/xml/config.xml": {
                "parents": {
                    "/*": [
                        {
                            "xml": "<feature name=\"Device\"><param name=\"android-package\" value=\"org.apache.cordova.device.Device\" /></feature>",
                            "count": 1
                        },
                        {
                            "xml": "<feature name=\"SplashScreen\"><param name=\"android-package\" value=\"org.apache.cordova.splashscreen.SplashScreen\" /><param name=\"onload\" value=\"true\" /></feature>",
                            "count": 1
                        },
                        {
                            "xml": "<feature name=\"StatusBar\"><param name=\"android-package\" value=\"org.apache.cordova.statusbar.StatusBar\" /><param name=\"onload\" value=\"true\" /></feature>",
                            "count": 1
                        },
                        {
                            "xml": "<feature name=\"Whitelist\"><param name=\"android-package\" value=\"org.apache.cordova.whitelist.WhitelistPlugin\" /><param name=\"onload\" value=\"true\" /></feature>",
                            "count": 1
                        },
                        {
                            "xml": "<feature name=\"Keyboard\"><param name=\"android-package\" value=\"io.ionic.keyboard.IonicKeyboard\" /><param name=\"onload\" value=\"true\" /></feature>",
                            "count": 1
                        },
                        {
                            "xml": "<feature name=\"SQLitePlugin\"><param name=\"android-package\" value=\"io.liteglue.SQLitePlugin\" /></feature>",
                            "count": 1
                        },
                        {
                            "xml": "<feature name=\"sqlDB\"><param name=\"android-package\" value=\"me.rahul.plugins.sqlDB.sqlDB\" /></feature>",
                            "count": 1
                        },
                        {
                            "xml": "<feature name=\"ScannerManager\"><param name=\"android-package\" value=\"com.infor.mscm.scanner.ScannerManager\" /></feature>",
                            "count": 1
                        },
                        {
                            "xml": "<feature name=\"NativeAudio\"><param name=\"android-package\" value=\"com.rjfun.cordova.plugin.nativeaudio.NativeAudio\" /></feature>",
                            "count": 1
                        },
                        {
                            "xml": "<feature name=\"Globalization\"><param name=\"android-package\" value=\"org.apache.cordova.globalization.Globalization\" /></feature>",
                            "count": 1
                        },
                        {
                            "xml": "<feature name=\"Toast\"><param name=\"android-package\" value=\"nl.xservices.plugins.Toast\" /></feature>",
                            "count": 1
                        }
                    ]
                }
            },
            "AndroidManifest.xml": {
                "parents": {
                    "/*": [
                        {
                            "xml": "<uses-permission android:name=\"android.permission.MODIFY_AUDIO_SETTINGS\" />",
                            "count": 1
                        },
                        {
                            "xml": "<uses-permission android:name=\"android.permission.WRITE_EXTERNAL_STORAGE\" />",
                            "count": 1
                        },
                        {
                            "xml": "<uses-permission android:name=\"android.permission.READ_PHONE_STATE\" />",
                            "count": 1
                        }
                    ],
                    "/manifest": [
                        {
                            "xml": "<uses-permission android:name=\"android.permission.WRITE_EXTERNAL_STORAGE\" />",
                            "count": 1
                        }
                    ]
                }
            }
        }
    },
    "installed_plugins": {
        "cordova-plugin-console": {
            "PACKAGE_NAME": "com.infor.pou.mscm"
        },
        "cordova-plugin-device": {
            "PACKAGE_NAME": "com.infor.pou.mscm"
        },
        "cordova-plugin-splashscreen": {
            "PACKAGE_NAME": "com.infor.pou.mscm"
        },
        "cordova-plugin-statusbar": {
            "PACKAGE_NAME": "com.infor.pou.mscm"
        },
        "cordova-plugin-whitelist": {
            "PACKAGE_NAME": "com.infor.pou.mscm"
        },
        "ionic-plugin-keyboard": {
            "PACKAGE_NAME": "com.infor.pou.mscm"
        },
        "cordova-sqlite-storage": {
            "PACKAGE_NAME": "com.infor.pou.mscm"
        },
        "me.rahul.plugins.sqlDB": {
            "PACKAGE_NAME": "com.infor.pou.mscm"
        },
        "infor-mscm-scanner": {
            "PACKAGE_NAME": "com.infor.pou.mscm"
        },
        "cordova-plugin-nativeaudio": {
            "PACKAGE_NAME": "com.infor.pou.mscm"
        },
        "cordova-plugin-globalization": {
            "PACKAGE_NAME": "com.infor.pou.mscm"
        },
        "cordova-plugin-x-toast": {
            "PACKAGE_NAME": "com.infor.pou.mscm"
        }
    },
    "dependent_plugins": {}
}